Tidy Tuesday Pokemon 3
…
set.seed(212)
lasso_models <- lasso_workflow %>% 
  tune_grid(
    grid = grid_regular(penalty(range = c(-5, 1)), levels = 50),
    resamples = vfold_cv(pokemon_LASSO, v = 10),
    metrics = metric_set(mae)
  )

lasso_models %>% 
  collect_metrics()

# A tibble: 50 × 7
     penalty .metric .estimator  mean     n std_err .config              
       <dbl> <chr>   <chr>      <dbl> <int>   <dbl> <chr>                
 1 0.00001   mae     standard    21.6    10    1.14 Preprocessor1_Model01
 2 0.0000133 mae     standard    21.6    10    1.14 Preprocessor1_Model02
 3 0.0000176 mae     standard    21.6    10    1.14 Preprocessor1_Model03
 4 0.0000233 mae     standard    21.6    10    1.14 Preprocessor1_Model04
 5 0.0000309 mae     standard    21.6    10    1.14 Preprocessor1_Model05
 6 0.0000409 mae     standard    21.6    10    1.14 Preprocessor1_Model06
 7 0.0000543 mae     standard    21.6    10    1.14 Preprocessor1_Model07
 8 0.0000720 mae     standard    21.6    10    1.14 Preprocessor1_Model08
 9 0.0000954 mae     standard    21.6    10    1.14 Preprocessor1_Model09
10 0.000126  mae     standard    21.6    10    1.14 Preprocessor1_Model10
# ℹ 40 more rows

parsimonious_penalty <- lasso_models %>% 
  select_by_one_std_err(metric = "mae", desc(penalty))

final_lasso_model <- lasso_workflow %>% 
  finalize_workflow(parameters = parsimonious_penalty) %>% 
  fit(data = pokemon_LASSO)

final_lasso_model %>% 
  tidy()

# A tibble: 45 × 3
   term            estimate penalty
   <chr>              <dbl>   <dbl>
 1 (Intercept)      -80.1      4.29
 2 height             0        4.29
 3 weight             0        4.29
 4 hp                 0.768    4.29
 5 attack             0.407    4.29
 6 defense            0.344    4.29
 7 special_attack     0.488    4.29
 8 special_defense    0.705    4.29
 9 speed              0.504    4.29
10 generation_id     -0.409    4.29
# ℹ 35 more rows
…
set.seed(212)
lasso_models <- lasso_workflow %>% 
  tune_grid(
    grid = grid_regular(penalty(range = c(-5, 1)), levels = 50),
    resamples = vfold_cv(water_pokemon, v = 10),
    metrics = metric_set(mae)
  )

lasso_models %>% 
  collect_metrics()

# A tibble: 50 × 7
     penalty .metric .estimator  mean     n std_err .config              
       <dbl> <chr>   <chr>      <dbl> <int>   <dbl> <chr>                
 1 0.00001   mae     standard   0.226    10 0.00598 Preprocessor1_Model01
 2 0.0000133 mae     standard   0.226    10 0.00598 Preprocessor1_Model02
 3 0.0000176 mae     standard   0.226    10 0.00598 Preprocessor1_Model03
 4 0.0000233 mae     standard   0.226    10 0.00598 Preprocessor1_Model04
 5 0.0000309 mae     standard   0.226    10 0.00598 Preprocessor1_Model05
 6 0.0000409 mae     standard   0.226    10 0.00597 Preprocessor1_Model06
 7 0.0000543 mae     standard   0.226    10 0.00597 Preprocessor1_Model07
 8 0.0000720 mae     standard   0.226    10 0.00597 Preprocessor1_Model08
 9 0.0000954 mae     standard   0.226    10 0.00596 Preprocessor1_Model09
10 0.000126  mae     standard   0.226    10 0.00595 Preprocessor1_Model10
# ℹ 40 more rows

parsimonious_penalty <- lasso_models %>% 
  select_by_one_std_err(metric = "mae", desc(penalty))

final_lasso_model <- lasso_workflow %>% 
  finalize_workflow(parameters = parsimonious_penalty) %>% 
  fit(data = water_pokemon)

final_lasso_model %>% 
  tidy()

# A tibble: 29 × 3
   term              estimate penalty
   <chr>                <dbl>   <dbl>
 1 (Intercept)      0.161      0.0202
 2 height           0.00329    0.0202
 3 weight           0          0.0202
 4 base_experience  0          0.0202
 5 hp               0          0.0202
 6 attack          -0.0000578  0.0202
 7 defense          0          0.0202
 8 special_attack   0          0.0202
 9 special_defense  0          0.0202
10 speed            0          0.0202
# ℹ 19 more rows
…
